Strain	Genome_ID	Read1	Read2
Leaf205	20170522.A-Leaf205	p2195/HiSeq4000_20170522_RUN356_o3379/20170522.A-Leaf205_R1.fastq.gz	p2195/HiSeq4000_20170522_RUN356_o3379/20170522.A-Leaf205_R2.fastq.gz
Leaf21	20170522.A-Leaf21	p2195/HiSeq4000_20170522_RUN356_o3379/20170522.A-Leaf21_R1.fastq.gz	p2195/HiSeq4000_20170522_RUN356_o3379/20170522.A-Leaf21_R2.fastq.gz
Leaf313	20170522.A-Leaf313	p2195/HiSeq4000_20170522_RUN356_o3379/20170522.A-Leaf313_R1.fastq.gz	p2195/HiSeq4000_20170522_RUN356_o3379/20170522.A-Leaf313_R2.fastq.gz
Leaf374	20170522.A-Leaf374	p2195/HiSeq4000_20170522_RUN356_o3379/20170522.A-Leaf374_R1.fastq.gz	p2195/HiSeq4000_20170522_RUN356_o3379/20170522.A-Leaf374_R2.fastq.gz
Leaf408	20170522.A-Leaf408	p2195/HiSeq4000_20170522_RUN356_o3379/20170522.A-Leaf408_R1.fastq.gz	p2195/HiSeq4000_20170522_RUN356_o3379/20170522.A-Leaf408_R2.fastq.gz
